<svg width="13" height="10" viewBox="0 0 13 10" fill="none" xmlns="http://www.w3.org/2000/svg">
<path d="M11.9824 1.55068C11.6195 1.70684 11.2381 1.81557 10.8474 1.8742C11.0301 1.84289 11.2988 1.51416 11.4058 1.3811C11.5683 1.18039 11.6921 0.951262 11.771 0.705358C11.771 0.687095 11.7893 0.661005 11.771 0.64796C11.7618 0.642936 11.7515 0.640303 11.741 0.640303C11.7306 0.640303 11.7202 0.642936 11.711 0.64796C11.2869 0.877664 10.8354 1.05298 10.3674 1.16977C10.3511 1.17475 10.3337 1.1752 10.3172 1.17106C10.3006 1.16692 10.2855 1.15836 10.2735 1.14628C10.237 1.1029 10.1978 1.06194 10.1561 1.02366C9.96516 0.852624 9.74858 0.71264 9.51423 0.608824C9.1979 0.479045 8.85621 0.422841 8.51498 0.444456C8.18387 0.465366 7.86061 0.554175 7.56529 0.705358C7.27448 0.86475 7.01889 1.08129 6.81389 1.34196C6.59825 1.61026 6.44256 1.92163 6.35731 2.25512C6.28701 2.57234 6.27903 2.9002 6.33383 3.22046C6.33383 3.27525 6.33383 3.28308 6.28687 3.27525C4.42663 3.0013 2.90035 2.34122 1.65323 0.924517C1.59844 0.8619 1.56974 0.8619 1.52539 0.924517C0.982714 1.74897 1.24623 3.05348 1.92457 3.69791C2.01589 3.78401 2.10981 3.8675 2.20896 3.94577C1.89794 3.92369 1.59452 3.83941 1.31667 3.69791C1.26449 3.664 1.23579 3.68226 1.23318 3.74487C1.22578 3.83169 1.22578 3.91897 1.23318 4.00578C1.28762 4.42181 1.45158 4.81592 1.70828 5.14781C1.96499 5.4797 2.30524 5.73745 2.69424 5.89471C2.78906 5.93533 2.88787 5.96594 2.98906 5.98603C2.70113 6.04272 2.40583 6.05153 2.11503 6.01212C2.05241 5.99907 2.02893 6.03299 2.05241 6.093C2.43594 7.13661 3.26822 7.45491 3.87873 7.63233C3.96222 7.64537 4.04571 7.64537 4.13964 7.66624C4.13964 7.66624 4.13964 7.66624 4.12398 7.6819C3.94396 8.01063 3.21604 8.2324 2.88209 8.3472C2.27253 8.56615 1.62263 8.64983 0.977496 8.59245C0.875744 8.57679 0.852262 8.5794 0.826172 8.59245C0.800082 8.60549 0.826172 8.63419 0.854871 8.66028C0.985323 8.74638 1.11577 8.82204 1.25144 8.89509C1.65533 9.11539 2.08232 9.29039 2.52465 9.4169C4.81537 10.0483 7.39309 9.58388 9.11244 7.87497C10.4639 6.53393 10.9388 4.68412 10.9388 2.83172C10.9388 2.76127 11.0249 2.71953 11.0744 2.683C11.4163 2.41659 11.7178 2.10197 11.9693 1.74897C12.0129 1.69635 12.0352 1.62935 12.0319 1.56112C12.0319 1.52198 12.0319 1.52981 11.9824 1.55068Z" fill="white"/>
</svg>
